{
    "name": "TwoScoopGames.ScriptableObjects.Editor",
    "references": [
        "GUID:28c5200d108123ff29143e613af2f67f"
    ],
    "includePlatforms": [
        "Editor"
    ],
    "excludePlatforms": [],
    "allowUnsafeCode": false,
    "overrideReferences": false,
    "precompiledReferences": [],
    "autoReferenced": true,
    "defineConstraints": [],
    "versionDefines": []
}